設計書はgit管理されているか？(2列目にYes/Noで記述),Yes,設計書リポジトリのURL(4列目に記述),https://bitbucket.org/kronos-jp/tf-fastnumber-doc/src/master/
;納品設計書名,FastNumberデータベース設計書.xlsx
;納品設計書名,FastNumberデータベース設計書_ER図.a5er
;納品設計書名,FastNumber企業毎スタイル設計書.xlsx
;納品設計書名,FastNumber内部ファイル設計書.docx
;納品設計書名,FastNumber内部ファイル設計書_(別紙)ログ仕様.xls
;納品設計書名,FastNumber内部ファイル設計書_(別紙)画面メッセージ一覧.xls
;納品設計書名,FastNumber基本設計書.docx
納品設計書名,FastNumber外部IF設計書.docx
;納品設計書名,FastNumber導入手順書.docx
納品設計書名,FastNumber画面設計書_アプリ.docx
納品設計書名,FastNumber画面設計書_管理Web.docx
;納品設計書名,FastNumber設定ファイル設計書.docx
;納品設計書名,FastNumber詳細設計書_(別紙)ステータス判定共通仕様.xls
;納品設計書名,FastNumber詳細設計書_バッチ.docx
;納品設計書名,アプリセキュリティ要件基準チェックリスト.xlsx
;納品設計書名,管理Webセキュリティ要件基準チェックリスト.xlsx